HW3_sample_tb/waveform.vcd
$version Generated by VerilatedVcd $end
$date Sun Apr 30 01:17:45 2023 $end
$timescale 1s $end

 $scope module TOP $end
  $var wire  1 W! clk $end
  $var wire  1 Y! finish $end
  $var wire  1 X! rst $end
  $scope module hw3_tb $end
   $var wire 32 Z! DWIDTH [31:0] $end
   $var wire  1 W! clk $end
   $var wire 32 5 cycle_count [31:0] $end
   $var wire 32 \! cycle_for_ans [31:0] $end
   $var wire  1 Y! finish $end
   $var wire 32 V golden_dmem[0] [31:0] $end
   $var wire 32 ` golden_dmem[10] [31:0] $end
   $var wire 32 a golden_dmem[11] [31:0] $end
   $var wire 32 b golden_dmem[12] [31:0] $end
   $var wire 32 c golden_dmem[13] [31:0] $end
   $var wire 32 d golden_dmem[14] [31:0] $end
   $var wire 32 e golden_dmem[15] [31:0] $end
   $var wire 32 W golden_dmem[1] [31:0] $end
   $var wire 32 X golden_dmem[2] [31:0] $end
   $var wire 32 Y golden_dmem[3] [31:0] $end
   $var wire 32 Z golden_dmem[4] [31:0] $end
   $var wire 32 [ golden_dmem[5] [31:0] $end
   $var wire 32 \ golden_dmem[6] [31:0] $end
   $var wire 32 ] golden_dmem[7] [31:0] $end
   $var wire 32 ^ golden_dmem[8] [31:0] $end
   $var wire 32 _ golden_dmem[9] [31:0] $end
   $var wire 32 6 golden_reg[0] [31:0] $end
   $var wire 32 @ golden_reg[10] [31:0] $end
   $var wire 32 A golden_reg[11] [31:0] $end
   $var wire 32 B golden_reg[12] [31:0] $end
   $var wire 32 C golden_reg[13] [31:0] $end
   $var wire 32 D golden_reg[14] [31:0] $end
   $var wire 32 E golden_reg[15] [31:0] $end
   $var wire 32 F golden_reg[16] [31:0] $end
   $var wire 32 G golden_reg[17] [31:0] $end
   $var wire 32 H golden_reg[18] [31:0] $end
   $var wire 32 I golden_reg[19] [31:0] $end
   $var wire 32 7 golden_reg[1] [31:0] $end
   $var wire 32 J golden_reg[20] [31:0] $end
   $var wire 32 K golden_reg[21] [31:0] $end
   $var wire 32 L golden_reg[22] [31:0] $end
   $var wire 32 M golden_reg[23] [31:0] $end
   $var wire 32 N golden_reg[24] [31:0] $end
   $var wire 32 O golden_reg[25] [31:0] $end
   $var wire 32 P golden_reg[26] [31:0] $end
   $var wire 32 Q golden_reg[27] [31:0] $end
   $var wire 32 R golden_reg[28] [31:0] $end
   $var wire 32 S golden_reg[29] [31:0] $end
   $var wire 32 8 golden_reg[2] [31:0] $end
   $var wire 32 T golden_reg[30] [31:0] $end
   $var wire 32 U golden_reg[31] [31:0] $end
   $var wire 32 9 golden_reg[3] [31:0] $end
   $var wire 32 : golden_reg[4] [31:0] $end
   $var wire 32 ; golden_reg[5] [31:0] $end
   $var wire 32 < golden_reg[6] [31:0] $end
   $var wire 32 = golden_reg[7] [31:0] $end
   $var wire 32 > golden_reg[8] [31:0] $end
   $var wire 32 ? golden_reg[9] [31:0] $end
   $var wire 32 4 i [31:0] $end
   $var wire  1 X! rst $end
   $var wire  1 f start $end
   $var wire 32 [! tmp [31:0] $end
   $scope module core_top_inst $end
    $var wire 32 Z! DWIDTH [31:0] $end
    $var wire  3 ^! J_TYPE_BEQ [2:0] $end
    $var wire  3 a! J_TYPE_J [2:0] $end
    $var wire  3 _! J_TYPE_JAL [2:0] $end
    $var wire  3 `! J_TYPE_JR [2:0] $end
    $var wire  3 ]! J_TYPE_NOP [2:0] $end
    $var wire  1 W! clk $end
    $var wire 32 g pc [31:0] $end
    $var wire 32 h pc_in [31:0] $end
    $var wire  1 X! rst $end
    $scope module alu_inst $end
     $var wire 32 l ALU_Result [31:0] $end
     $var wire 32 Z! DWIDTH [31:0] $end
     $var wire  4 i op [3:0] $end
     $var wire  1 n overflow $end
     $var wire 32 l rd [31:0] $end
     $var wire 32 j rs1 [31:0] $end
     $var wire 32 k rs2 [31:0] $end
     $var wire  1 m zero $end
    $upscope $end
    $scope module decode_adder_inst $end
     $var wire 32 p decode [31:0] $end
     $var wire 32 r decode_shift [31:0] $end
     $var wire 32 o pc [31:0] $end
     $var wire 32 q result [31:0] $end
    $upscope $end
    $scope module decode_inst $end
     $var wire 32 Z! DWIDTH [31:0] $end
     $var wire  4 d! OP_ADD [3:0] $end
     $var wire  4 b! OP_AND [3:0] $end
     $var wire  4 h! OP_JR [3:0] $end
     $var wire  4 f! OP_NOR [3:0] $end
     $var wire  4 i! OP_NOT_DEFINED [3:0] $end
     $var wire  4 c! OP_OR [3:0] $end
     $var wire  4 g! OP_SLT [3:0] $end
     $var wire  4 e! OP_SUB [3:0] $end
     $var wire 32 p imm [31:0] $end
     $var wire 32 s instr [31:0] $end
     $var wire  1 | is_load $end
     $var wire 32 y jump_addr [31:0] $end
     $var wire  3 x jump_type [2:0] $end
     $var wire  4 i op [3:0] $end
     $var wire  7 } opcode [6:0] $end
     $var wire  5 w rdst_id [4:0] $end
     $var wire  5 u rs1_id [4:0] $end
     $var wire  5 v rs2_id [4:0] $end
     $var wire  2 t ssel [1:0] $end
     $var wire  1 z we_dmem $end
     $var wire  1 { we_regfile $end
    $upscope $end
    $scope module dmem_inst $end
     $var wire 32 #! RAM[0] [31:0] $end
     $var wire 32 -! RAM[10] [31:0] $end
     $var wire 32 .! RAM[11] [31:0] $end
     $var wire 32 /! RAM[12] [31:0] $end
     $var wire 32 0! RAM[13] [31:0] $end
     $var wire 32 1! RAM[14] [31:0] $end
     $var wire 32 2! RAM[15] [31:0] $end
     $var wire 32 $! RAM[1] [31:0] $end
     $var wire 32 %! RAM[2] [31:0] $end
     $var wire 32 &! RAM[3] [31:0] $end
     $var wire 32 '! RAM[4] [31:0] $end
     $var wire 32 (! RAM[5] [31:0] $end
     $var wire 32 )! RAM[6] [31:0] $end
     $var wire 32 *! RAM[7] [31:0] $end
     $var wire 32 +! RAM[8] [31:0] $end
     $var wire 32 ,! RAM[9] [31:0] $end
     $var wire  6 ~ addr [5:0] $end
     $var wire  1 W! clk $end
     $var wire 32 # idx [31:0] $end
     $var wire 32 "! rdata [31:0] $end
     $var wire 32 !! wdata [31:0] $end
     $var wire  1 z we $end
    $upscope $end
    $scope module imem_inst $end
     $var wire 32 $ RAM[0] [31:0] $end
     $var wire 32 . RAM[10] [31:0] $end
     $var wire 32 / RAM[11] [31:0] $end
     $var wire 32 0 RAM[12] [31:0] $end
     $var wire 32 1 RAM[13] [31:0] $end
     $var wire 32 2 RAM[14] [31:0] $end
     $var wire 32 3 RAM[15] [31:0] $end
     $var wire 32 % RAM[1] [31:0] $end
     $var wire 32 & RAM[2] [31:0] $end
     $var wire 32 ' RAM[3] [31:0] $end
     $var wire 32 ( RAM[4] [31:0] $end
     $var wire 32 ) RAM[5] [31:0] $end
     $var wire 32 * RAM[6] [31:0] $end
     $var wire 32 + RAM[7] [31:0] $end
     $var wire 32 , RAM[8] [31:0] $end
     $var wire 32 - RAM[9] [31:0] $end
     $var wire  6 3! addr [5:0] $end
     $var wire 32 s rdata [31:0] $end
    $upscope $end
    $scope module mux2_1_inst $end
     $var wire 32 l alu_rd [31:0] $end
     $var wire 32 4! decode_lw [31:0] $end
     $var wire 32 "! dmem_rdata [31:0] $end
     $var wire 32 5! reg_rdst [31:0] $end
    $upscope $end
    $scope module mux4_1_inst $end
     $var wire 32 o addr_ra [31:0] $end
     $var wire 32 k alu_rs2 [31:0] $end
     $var wire 32 p decode_imm [31:0] $end
     $var wire  2 t decode_ssel [1:0] $end
     $var wire 32 !! reg_rs2 [31:0] $end
    $upscope $end
    $scope module mux5_1_inst $end
     $var wire 32 o adder_result1 [31:0] $end
     $var wire 32 q adder_result2 [31:0] $end
     $var wire  1 m is_zero $end
     $var wire 32 j jr_address [31:0] $end
     $var wire 32 y jump_address [31:0] $end
     $var wire  3 x jump_type [2:0] $end
     $var wire 32 h pc_result [31:0] $end
     $var wire 32 j! select [31:0] $end
    $upscope $end
    $scope module pc_adder_inst $end
     $var wire 32 g pc [31:0] $end
     $var wire 32 o result [31:0] $end
    $upscope $end
    $scope module reg_file_inst $end
     $var wire 32 Z! DWIDTH [31:0] $end
     $var wire 32 6! R[0] [31:0] $end
     $var wire 32 @! R[10] [31:0] $end
     $var wire 32 A! R[11] [31:0] $end
     $var wire 32 B! R[12] [31:0] $end
     $var wire 32 C! R[13] [31:0] $end
     $var wire 32 D! R[14] [31:0] $end
     $var wire 32 E! R[15] [31:0] $end
     $var wire 32 F! R[16] [31:0] $end
     $var wire 32 G! R[17] [31:0] $end
     $var wire 32 H! R[18] [31:0] $end
     $var wire 32 I! R[19] [31:0] $end
     $var wire 32 7! R[1] [31:0] $end
     $var wire 32 J! R[20] [31:0] $end
     $var wire 32 K! R[21] [31:0] $end
     $var wire 32 L! R[22] [31:0] $end
     $var wire 32 M! R[23] [31:0] $end
     $var wire 32 N! R[24] [31:0] $end
     $var wire 32 O! R[25] [31:0] $end
     $var wire 32 P! R[26] [31:0] $end
     $var wire 32 Q! R[27] [31:0] $end
     $var wire 32 R! R[28] [31:0] $end
     $var wire 32 S! R[29] [31:0] $end
     $var wire 32 8! R[2] [31:0] $end
     $var wire 32 T! R[30] [31:0] $end
     $var wire 32 U! R[31] [31:0] $end
     $var wire 32 9! R[3] [31:0] $end
     $var wire 32 :! R[4] [31:0] $end
     $var wire 32 ;! R[5] [31:0] $end
     $var wire 32 <! R[6] [31:0] $end
     $var wire 32 =! R[7] [31:0] $end
     $var wire 32 >! R[8] [31:0] $end
     $var wire 32 ?! R[9] [31:0] $end
     $var wire  1 W! clk $end
     $var wire 32 5! rdst [31:0] $end
     $var wire  5 w rdst_id [4:0] $end
     $var wire 32 j rs1 [31:0] $end
     $var wire  5 u rs1_id [4:0] $end
     $var wire 32 !! rs2 [31:0] $end
     $var wire  5 v rs2_id [4:0] $end
     $var wire  1 X! rst $end
     $var wire  1 { we $end
     $scope module unnamedblk1 $end
      $var wire 32 V! i [31:0] $end
     $upscope $end
    $upscope $end
   $upscope $end
  $upscope $end
 $upscope $end
$enddefinitions $end


#0
b00000000000000000000000000010000 #
b00100000000010000000000000010111 $
b00100001000010010000000000101101 %
b10101100000010010000000000001000 &
b10001100000010100000000000001000 '
b00100001010010111111111111010011 (
b00010001000010110000000000000001 )
b10101100000010000000000000000000 *
b00001000000100000000000000000111 +
b00000000000000000000000000000000 ,
b00000000000000000000000000000000 -
b00000000000000000000000000000000 .
b00000000000000000000000000000000 /
b00000000000000000000000000000000 0
b00000000000000000000000000000000 1
b00000000000000000000000000000000 2
b00000000000000000000000000000000 3
b00000000000000000000000000000000 4
b00000000000000000000000000000000 5
b00000000000000000000000000000000 6
b00000000000000000000000000000000 7
b00000000000000000000000000000000 8
b00000000000000000000000000000000 9
b00000000000000000000000000000000 :
b00000000000000000000000000000000 ;
b00000000000000000000000000000000 <
b00000000000000000000000000000000 =
b00000000000000000000000000000000 >
b00000000000000000000000000000000 ?
b00000000000000000000000000000000 @
b00000000000000000000000000000000 A
b00000000000000000000000000000000 B
b00000000000000000000000000000000 C
b00000000000000000000000000000000 D
b00000000000000000000000000000000 E
b00000000000000000000000000000000 F
b00000000000000000000000000000000 G
b00000000000000000000000000000000 H
b00000000000000000000000000000000 I
b00000000000000000000000000000000 J
b00000000000000000000000000000000 K
b00000000000000000000000000000000 L
b00000000000000000000000000000000 M
b00000000000000000000000000000000 N
b00000000000000000000000000000000 O
b00000000000000000000000000000000 P
b00000000000000000000000000000000 Q
b00000000000000000000000000000000 R
b00000000000000000000000000000000 S
b00000000000000000000000000000000 T
b00000000000000000000000000000000 U
b00000000000000000000000000000000 V
b00000000000000000000000000000000 W
b00000000000000000000000000000000 X
b00000000000000000000000000000000 Y
b00000000000000000000000000000000 Z
b00000000000000000000000000000000 [
b00000000000000000000000000000000 \
b00000000000000000000000000000000 ]
b00000000000000000000000000000000 ^
b00000000000000000000000000000000 _
b00000000000000000000000000000000 `
b00000000000000000000000000000000 a
b00000000000000000000000000000000 b
b00000000000000000000000000000000 c
b00000000000000000000000000000000 d
b00000000000000000000000000000000 e
1f
b00000000000000000000000000000000 g
b00000000000000000000000000000100 h
b0010 i
b00000000000000000000000000000000 j
b00000000000000000000000000010111 k
b00000000000000000000000000010111 l
0m
0n
b00000000000000000000000000000100 o
b00000000000000000000000000010111 p
b00000000000000000000000001100000 q
b00000000000000000000000001011100 r
b00100000000010000000000000010111 s
b00 t
b00000 u
b00000 v
b01000 w
b000 x
b00000000000000000000000000000000 y
0z
1{
0|
b0001000 }
b010111 ~
b00000000000000000000000000000000 !!
b00000000000000000000000000000000 "!
b00000000000000000000000000000000 #!
b00000000000000000000000000000000 $!
b00000000000000000000000000000000 %!
b00000000000000000000000000000000 &!
b00000000000000000000000000000000 '!
b00000000000000000000000000000000 (!
b00000000000000000000000000000000 )!
b00000000000000000000000000000000 *!
b00000000000000000000000000000000 +!
b00000000000000000000000000000000 ,!
b00000000000000000000000000000000 -!
b00000000000000000000000000000000 .!
b00000000000000000000000000000000 /!
b00000000000000000000000000000000 0!
b00000000000000000000000000000000 1!
b00000000000000000000000000000000 2!
b000000 3!
b00000000000000000000000000000000 4!
b00000000000000000000000000010111 5!
b00000000000000000000000000000000 6!
b00000000000000000000000000000000 7!
b00000000000000000000000000000000 8!
b00000000000000000000000000000000 9!
b00000000000000000000000000000000 :!
b00000000000000000000000000000000 ;!
b00000000000000000000000000000000 <!
b00000000000000000000000000000000 =!
b00000000000000000000000000000000 >!
b00000000000000000000000000000000 ?!
b00000000000000000000000000000000 @!
b00000000000000000000000000000000 A!
b00000000000000000000000000000000 B!
b00000000000000000000000000000000 C!
b00000000000000000000000000000000 D!
b00000000000000000000000000000000 E!
b00000000000000000000000000000000 F!
b00000000000000000000000000000000 G!
b00000000000000000000000000000000 H!
b00000000000000000000000000000000 I!
b00000000000000000000000000000000 J!
b00000000000000000000000000000000 K!
b00000000000000000000000000000000 L!
b00000000000000000000000000000000 M!
b00000000000000000000000000000000 N!
b00000000000000000000000000000000 O!
b00000000000000000000000000000000 P!
b00000000000000000000000000000000 Q!
b00000000000000000000000000000000 R!
b00000000000000000000000000000000 S!
b00000000000000000000000000000000 T!
b00000000000000000000000000000000 U!
b00000000000000000000000000000000 V!
0W!
1X!
0Y!
b00000000000000000000000000100000 Z!
b00000000000000000000000000000000 [!
b00000000000000000000000000001000 \!
b000 ]!
b001 ^!
b010 _!
b011 `!
b100 a!
b0000 b!
b0001 c!
b0010 d!
b0110 e!
b1100 f!
b0111 g!
b1000 h!
b1111 i!
b00000000000000000000000000000000 j!
#1
b00000000000000000000000000100000 V!
1W!
#2
0f
0W!
#3
1W!
#4
b00000000000000000000000000000001 5
0W!
#5
b00000000000000000000000000000100 g
b00000000000000000000000000001000 h
b00000000000000000000000000010111 j
b00000000000000000000000000101101 k
b00000000000000000000000001000100 l
b00000000000000000000000000001000 o
b00000000000000000000000000101101 p
b00000000000000000000000010111100 q
b00000000000000000000000010110100 r
b00100001000010010000000000101101 s
b01000 u
b01001 w
b000100 ~
b000100 3!
b00000000000000000000000001000100 5!
b00000000000000000000000000010111 >!
1W!
0X!
#6
b00000000000000000000000000000010 5
0W!
#7
b00000000000000000000000000001000 g
b00000000000000000000000000001100 h
b00000000000000000000000000000000 j
b00000000000000000000000000001000 k
b00000000000000000000000000001000 l
b00000000000000000000000000001100 o
b00000000000000000000000000001000 p
b00000000000000000000000000101100 q
b00000000000000000000000000100000 r
b10101100000010010000000000001000 s
b00000 u
b01001 v
b00000 w
1z
0{
b0101011 }
b001000 ~
b00000000000000000000000001000100 !!
b001000 3!
b00000000000000000000000000001000 5!
b00000000000000000000000001000100 ?!
1W!
#8
b00000000000000000000000000000011 5
0W!
#9
b00000000000000000000000000001100 g
b00000000000000000000000000010000 h
b00000000000000000000000000010000 o
b00000000000000000000000000110000 q
b10001100000010100000000000001000 s
b00000 v
b01010 w
0z
1{
1|
b0100011 }
b00000000000000000000000000000000 !!
b00000000000000000000000001000100 "!
b00000000000000000000000001000100 %!
b001100 3!
b00000000000000000000000000000001 4!
b00000000000000000000000001000100 5!
1W!
#10
b00000000000000000000000000000100 5
0W!
#11
b00000000000000000000000000010000 g
b00000000000000000000000000010100 h
b00000000000000000000000001000100 j
b11111111111111111111111111010011 k
b00000000000000000000000000010111 l
b00000000000000000000000000010100 o
b11111111111111111111111111010011 p
b11111111111111111111111101100000 q
b11111111111111111111111101001100 r
b00100001010010111111111111010011 s
b01010 u
b01011 w
0|
b0001000 }
b010111 ~
b00000000000000000000000000000000 "!
b010000 3!
b00000000000000000000000000000000 4!
b00000000000000000000000000010111 5!
b00000000000000000000000001000100 @!
1W!
#12
b00000000000000000000000000000101 5
0W!
#13
b00000000000000000000000000010100 g
b00000000000000000000000000011000 h
b0110 i
b00000000000000000000000000010111 j
b00000000000000000000000000000001 k
b00000000000000000000000000010110 l
b00000000000000000000000000011000 o
b00000000000000000000000000000001 p
b00000000000000000000000000011100 q
b00000000000000000000000000000100 r
b00010001000010110000000000000001 s
b01000 u
b001 x
0{
b0000100 }
b010110 ~
b010100 3!
b00000000000000000000000000010110 5!
b00000000000000000000000000010111 A!
1W!
#14
b00000000000000000000000000000110 5
0W!
#15
b00000000000000000000000000011000 g
b00000000000000000000000000011100 h
b0010 i
b00000000000000000000000000000000 j
b00000000000000000000000000000000 k
b00000000000000000000000000000000 l
1m
b00000000000000000000000000011100 o
b00000000000000000000000000000000 p
b00000000000000000000000000000000 r
b10101100000010000000000000000000 s
b00000 u
b01000 v
b00000 w
b000 x
1z
b0101011 }
b000000 ~
b00000000000000000000000000010111 !!
b011000 3!
b00000000000000000000000000000000 5!
1W!
#16
b00000000000000000000000000000111 5
0W!
#17
b00000000000000000000000000011100 g
b00000000000000000000000000100000 h
b1111 i
b00000000000000000000000000100000 o
b00000000000000000000000000100000 q
b00001000000100000000000000000111 s
b00000 v
b100 x
b00000000000100000000000000000111 y
0z
b0000010 }
b00000000000000000000000000000000 !!
b00000000000000000000000000010111 "!
b00000000000000000000000000010111 #!
b011100 3!
1W!
#18
b00000000000000000000000000001000 5
0W!
#19
b00000000000000000000000000100000 g
b00000000000000000000000000100100 h
b00000000000000000000000000100100 o
b00000000000000000000000000100100 q
b00000000000000000000000000000000 s
b10 t
b000 x
b00000000000000000000000000000000 y
1{
b0000000 }
b100000 3!
1W!
