HW3_sample_tb/waveform.vcd
$version Generated by VerilatedVcd $end
$date Sun Apr 30 14:17:33 2023 $end
$timescale 1s $end

 $scope module TOP $end
  $var wire  1 X! clk $end
  $var wire  1 Z! finish $end
  $var wire  1 Y! rst $end
  $scope module hw3_tb $end
   $var wire 32 [! DWIDTH [31:0] $end
   $var wire  1 X! clk $end
   $var wire 32 5 cycle_count [31:0] $end
   $var wire 32 ]! cycle_for_ans [31:0] $end
   $var wire  1 Z! finish $end
   $var wire 32 V golden_dmem[0] [31:0] $end
   $var wire 32 ` golden_dmem[10] [31:0] $end
   $var wire 32 a golden_dmem[11] [31:0] $end
   $var wire 32 b golden_dmem[12] [31:0] $end
   $var wire 32 c golden_dmem[13] [31:0] $end
   $var wire 32 d golden_dmem[14] [31:0] $end
   $var wire 32 e golden_dmem[15] [31:0] $end
   $var wire 32 W golden_dmem[1] [31:0] $end
   $var wire 32 X golden_dmem[2] [31:0] $end
   $var wire 32 Y golden_dmem[3] [31:0] $end
   $var wire 32 Z golden_dmem[4] [31:0] $end
   $var wire 32 [ golden_dmem[5] [31:0] $end
   $var wire 32 \ golden_dmem[6] [31:0] $end
   $var wire 32 ] golden_dmem[7] [31:0] $end
   $var wire 32 ^ golden_dmem[8] [31:0] $end
   $var wire 32 _ golden_dmem[9] [31:0] $end
   $var wire 32 6 golden_reg[0] [31:0] $end
   $var wire 32 @ golden_reg[10] [31:0] $end
   $var wire 32 A golden_reg[11] [31:0] $end
   $var wire 32 B golden_reg[12] [31:0] $end
   $var wire 32 C golden_reg[13] [31:0] $end
   $var wire 32 D golden_reg[14] [31:0] $end
   $var wire 32 E golden_reg[15] [31:0] $end
   $var wire 32 F golden_reg[16] [31:0] $end
   $var wire 32 G golden_reg[17] [31:0] $end
   $var wire 32 H golden_reg[18] [31:0] $end
   $var wire 32 I golden_reg[19] [31:0] $end
   $var wire 32 7 golden_reg[1] [31:0] $end
   $var wire 32 J golden_reg[20] [31:0] $end
   $var wire 32 K golden_reg[21] [31:0] $end
   $var wire 32 L golden_reg[22] [31:0] $end
   $var wire 32 M golden_reg[23] [31:0] $end
   $var wire 32 N golden_reg[24] [31:0] $end
   $var wire 32 O golden_reg[25] [31:0] $end
   $var wire 32 P golden_reg[26] [31:0] $end
   $var wire 32 Q golden_reg[27] [31:0] $end
   $var wire 32 R golden_reg[28] [31:0] $end
   $var wire 32 S golden_reg[29] [31:0] $end
   $var wire 32 8 golden_reg[2] [31:0] $end
   $var wire 32 T golden_reg[30] [31:0] $end
   $var wire 32 U golden_reg[31] [31:0] $end
   $var wire 32 9 golden_reg[3] [31:0] $end
   $var wire 32 : golden_reg[4] [31:0] $end
   $var wire 32 ; golden_reg[5] [31:0] $end
   $var wire 32 < golden_reg[6] [31:0] $end
   $var wire 32 = golden_reg[7] [31:0] $end
   $var wire 32 > golden_reg[8] [31:0] $end
   $var wire 32 ? golden_reg[9] [31:0] $end
   $var wire 32 4 i [31:0] $end
   $var wire  1 Y! rst $end
   $var wire  1 f start $end
   $var wire 32 \! tmp [31:0] $end
   $scope module core_top_inst $end
    $var wire 32 [! DWIDTH [31:0] $end
    $var wire  3 _! J_TYPE_BEQ [2:0] $end
    $var wire  3 b! J_TYPE_J [2:0] $end
    $var wire  3 `! J_TYPE_JAL [2:0] $end
    $var wire  3 a! J_TYPE_JR [2:0] $end
    $var wire  3 ^! J_TYPE_NOP [2:0] $end
    $var wire  1 X! clk $end
    $var wire 32 g pc [31:0] $end
    $var wire 32 h pc_in [31:0] $end
    $var wire 32 g pc_out [31:0] $end
    $var wire  1 Y! rst $end
    $scope module alu_inst $end
     $var wire 32 l ALU_Result [31:0] $end
     $var wire 32 [! DWIDTH [31:0] $end
     $var wire  4 i op [3:0] $end
     $var wire  1 n overflow $end
     $var wire 32 l rd [31:0] $end
     $var wire 32 j rs1 [31:0] $end
     $var wire 32 k rs2 [31:0] $end
     $var wire  1 m zero $end
    $upscope $end
    $scope module decode_adder_inst $end
     $var wire 32 p decode [31:0] $end
     $var wire 32 r decode_shift [31:0] $end
     $var wire 32 o pc [31:0] $end
     $var wire 32 q result [31:0] $end
    $upscope $end
    $scope module decode_inst $end
     $var wire 32 [! DWIDTH [31:0] $end
     $var wire  4 e! OP_ADD [3:0] $end
     $var wire  4 c! OP_AND [3:0] $end
     $var wire  4 g! OP_NOR [3:0] $end
     $var wire  4 i! OP_NOT_DEFINED [3:0] $end
     $var wire  4 d! OP_OR [3:0] $end
     $var wire  4 h! OP_SLT [3:0] $end
     $var wire  4 f! OP_SUB [3:0] $end
     $var wire 32 p imm [31:0] $end
     $var wire 32 s instr [31:0] $end
     $var wire  1 | is_load $end
     $var wire 32 y jump_addr [31:0] $end
     $var wire  3 x jump_type [2:0] $end
     $var wire  4 i op [3:0] $end
     $var wire  7 } opcode [6:0] $end
     $var wire  5 w rdst_id [4:0] $end
     $var wire  5 u rs1_id [4:0] $end
     $var wire  5 v rs2_id [4:0] $end
     $var wire  2 t ssel [1:0] $end
     $var wire  1 z we_dmem $end
     $var wire  1 { we_regfile $end
    $upscope $end
    $scope module dmem_inst $end
     $var wire 32 #! RAM[0] [31:0] $end
     $var wire 32 -! RAM[10] [31:0] $end
     $var wire 32 .! RAM[11] [31:0] $end
     $var wire 32 /! RAM[12] [31:0] $end
     $var wire 32 0! RAM[13] [31:0] $end
     $var wire 32 1! RAM[14] [31:0] $end
     $var wire 32 2! RAM[15] [31:0] $end
     $var wire 32 $! RAM[1] [31:0] $end
     $var wire 32 %! RAM[2] [31:0] $end
     $var wire 32 &! RAM[3] [31:0] $end
     $var wire 32 '! RAM[4] [31:0] $end
     $var wire 32 (! RAM[5] [31:0] $end
     $var wire 32 )! RAM[6] [31:0] $end
     $var wire 32 *! RAM[7] [31:0] $end
     $var wire 32 +! RAM[8] [31:0] $end
     $var wire 32 ,! RAM[9] [31:0] $end
     $var wire  6 ~ addr [5:0] $end
     $var wire  1 X! clk $end
     $var wire 32 # idx [31:0] $end
     $var wire 32 "! rdata [31:0] $end
     $var wire 32 !! wdata [31:0] $end
     $var wire  1 z we $end
    $upscope $end
    $scope module imem_inst $end
     $var wire 32 $ RAM[0] [31:0] $end
     $var wire 32 . RAM[10] [31:0] $end
     $var wire 32 / RAM[11] [31:0] $end
     $var wire 32 0 RAM[12] [31:0] $end
     $var wire 32 1 RAM[13] [31:0] $end
     $var wire 32 2 RAM[14] [31:0] $end
     $var wire 32 3 RAM[15] [31:0] $end
     $var wire 32 % RAM[1] [31:0] $end
     $var wire 32 & RAM[2] [31:0] $end
     $var wire 32 ' RAM[3] [31:0] $end
     $var wire 32 ( RAM[4] [31:0] $end
     $var wire 32 ) RAM[5] [31:0] $end
     $var wire 32 * RAM[6] [31:0] $end
     $var wire 32 + RAM[7] [31:0] $end
     $var wire 32 , RAM[8] [31:0] $end
     $var wire 32 - RAM[9] [31:0] $end
     $var wire  6 3! addr [5:0] $end
     $var wire 32 s rdata [31:0] $end
    $upscope $end
    $scope module mux2_1_inst $end
     $var wire 32 l alu_rd [31:0] $end
     $var wire 32 4! decode_lw [31:0] $end
     $var wire 32 "! dmem_rdata [31:0] $end
     $var wire 32 5! reg_rdst [31:0] $end
    $upscope $end
    $scope module mux4_1_inst $end
     $var wire 32 o addr_ra [31:0] $end
     $var wire 32 k alu_rs2 [31:0] $end
     $var wire 32 p decode_imm [31:0] $end
     $var wire  2 t decode_ssel [1:0] $end
     $var wire 32 !! reg_rs2 [31:0] $end
    $upscope $end
    $scope module mux5_1_inst $end
     $var wire 32 o adder_result1 [31:0] $end
     $var wire 32 q adder_result2 [31:0] $end
     $var wire  1 m is_zero $end
     $var wire 32 j jr_address [31:0] $end
     $var wire 32 y jump_address [31:0] $end
     $var wire  2 6! jump_type [1:0] $end
     $var wire 32 h pc_result [31:0] $end
     $var wire  2 6! select [1:0] $end
    $upscope $end
    $scope module pc_adder_inst $end
     $var wire 32 g pc [31:0] $end
     $var wire 32 o result [31:0] $end
    $upscope $end
    $scope module reg_file_inst $end
     $var wire 32 [! DWIDTH [31:0] $end
     $var wire 32 7! R[0] [31:0] $end
     $var wire 32 A! R[10] [31:0] $end
     $var wire 32 B! R[11] [31:0] $end
     $var wire 32 C! R[12] [31:0] $end
     $var wire 32 D! R[13] [31:0] $end
     $var wire 32 E! R[14] [31:0] $end
     $var wire 32 F! R[15] [31:0] $end
     $var wire 32 G! R[16] [31:0] $end
     $var wire 32 H! R[17] [31:0] $end
     $var wire 32 I! R[18] [31:0] $end
     $var wire 32 J! R[19] [31:0] $end
     $var wire 32 8! R[1] [31:0] $end
     $var wire 32 K! R[20] [31:0] $end
     $var wire 32 L! R[21] [31:0] $end
     $var wire 32 M! R[22] [31:0] $end
     $var wire 32 N! R[23] [31:0] $end
     $var wire 32 O! R[24] [31:0] $end
     $var wire 32 P! R[25] [31:0] $end
     $var wire 32 Q! R[26] [31:0] $end
     $var wire 32 R! R[27] [31:0] $end
     $var wire 32 S! R[28] [31:0] $end
     $var wire 32 T! R[29] [31:0] $end
     $var wire 32 9! R[2] [31:0] $end
     $var wire 32 U! R[30] [31:0] $end
     $var wire 32 V! R[31] [31:0] $end
     $var wire 32 :! R[3] [31:0] $end
     $var wire 32 ;! R[4] [31:0] $end
     $var wire 32 <! R[5] [31:0] $end
     $var wire 32 =! R[6] [31:0] $end
     $var wire 32 >! R[7] [31:0] $end
     $var wire 32 ?! R[8] [31:0] $end
     $var wire 32 @! R[9] [31:0] $end
     $var wire  1 X! clk $end
     $var wire 32 5! rdst [31:0] $end
     $var wire  5 w rdst_id [4:0] $end
     $var wire 32 j rs1 [31:0] $end
     $var wire  5 u rs1_id [4:0] $end
     $var wire 32 !! rs2 [31:0] $end
     $var wire  5 v rs2_id [4:0] $end
     $var wire  1 Y! rst $end
     $var wire  1 { we $end
     $scope module unnamedblk1 $end
      $var wire 32 W! i [31:0] $end
     $upscope $end
    $upscope $end
   $upscope $end
  $upscope $end
 $upscope $end
$enddefinitions $end


#0
b00000000000000000000000000010000 #
b00000001001010010100100000100111 $
b00100001001010010110111101111101 %
b00100001000010000010110111010001 &
b00100000000010000010001011011000 '
b00100001001010010000011000001110 (
b00100001001010011001110110111010 )
b00010001000010011111111111111110 *
b00100001000010001011111110000000 +
b00100000000010001111110111111010 ,
b00010001001010001111111111111000 -
b00000000000010000100000000100000 .
b00001000000000000000000000001011 /
b00000000000000000000000000000000 0
b00000000000000000000000000000000 1
b00000000000000000000000000000000 2
b00000000000000000000000000000000 3
b00000000000000000000000000000000 4
b00000000000000000000000000000000 5
b00000000000000000000000000000000 6
b00000000000000000000000000000000 7
b00000000000000000000000000000000 8
b00000000000000000000000000000000 9
b00000000000000000000000000000000 :
b00000000000000000000000000000000 ;
b00000000000000000000000000000000 <
b00000000000000000000000000000000 =
b00000000000000000000000000000000 >
b00000000000000000000000000000000 ?
b00000000000000000000000000000000 @
b00000000000000000000000000000000 A
b00000000000000000000000000000000 B
b00000000000000000000000000000000 C
b00000000000000000000000000000000 D
b00000000000000000000000000000000 E
b00000000000000000000000000000000 F
b00000000000000000000000000000000 G
b00000000000000000000000000000000 H
b00000000000000000000000000000000 I
b00000000000000000000000000000000 J
b00000000000000000000000000000000 K
b00000000000000000000000000000000 L
b00000000000000000000000000000000 M
b00000000000000000000000000000000 N
b00000000000000000000000000000000 O
b00000000000000000000000000000000 P
b00000000000000000000000000000000 Q
b00000000000000000000000000000000 R
b00000000000000000000000000000000 S
b00000000000000000000000000000000 T
b00000000000000000000000000000000 U
b00000000000000000000000000000000 V
b00000000000000000000000000000000 W
b00000000000000000000000000000000 X
b00000000000000000000000000000000 Y
b00000000000000000000000000000000 Z
b00000000000000000000000000000000 [
b00000000000000000000000000000000 \
b00000000000000000000000000000000 ]
b00000000000000000000000000000000 ^
b00000000000000000000000000000000 _
b00000000000000000000000000000000 `
b00000000000000000000000000000000 a
b00000000000000000000000000000000 b
b00000000000000000000000000000000 c
b00000000000000000000000000000000 d
b00000000000000000000000000000000 e
1f
b00000000000000000000000000000000 g
b00000000000000000000000000000100 h
b1100 i
b00000000000000000000000000000000 j
b00000000000000000000000000000000 k
b11111111111111111111111111111111 l
0m
0n
b00000000000000000000000000000100 o
b00000000000000000000000000000000 p
b00000000000000000000000000000100 q
b00000000000000000000000000000000 r
b00000001001010010100100000100111 s
b10 t
b01001 u
b01001 v
b01001 w
b000 x
b00000000000000000000000000000000 y
0z
1{
0|
b0000000 }
b111111 ~
b00000000000000000000000000000000 !!
b00000000000000000000000000000000 "!
b00000000000000000000000000000000 #!
b00000000000000000000000000000000 $!
b00000000000000000000000000000000 %!
b00000000000000000000000000000000 &!
b00000000000000000000000000000000 '!
b00000000000000000000000000000000 (!
b00000000000000000000000000000000 )!
b00000000000000000000000000000000 *!
b00000000000000000000000000000000 +!
b00000000000000000000000000000000 ,!
b00000000000000000000000000000000 -!
b00000000000000000000000000000000 .!
b00000000000000000000000000000000 /!
b00000000000000000000000000000000 0!
b00000000000000000000000000000000 1!
b00000000000000000000000000000000 2!
b000000 3!
b00000000000000000000000000000000 4!
b11111111111111111111111111111111 5!
b00 6!
b00000000000000000000000000000000 7!
b00000000000000000000000000000000 8!
b00000000000000000000000000000000 9!
b00000000000000000000000000000000 :!
b00000000000000000000000000000000 ;!
b00000000000000000000000000000000 <!
b00000000000000000000000000000000 =!
b00000000000000000000000000000000 >!
b00000000000000000000000000000000 ?!
b00000000000000000000000000000000 @!
b00000000000000000000000000000000 A!
b00000000000000000000000000000000 B!
b00000000000000000000000000000000 C!
b00000000000000000000000000000000 D!
b00000000000000000000000000000000 E!
b00000000000000000000000000000000 F!
b00000000000000000000000000000000 G!
b00000000000000000000000000000000 H!
b00000000000000000000000000000000 I!
b00000000000000000000000000000000 J!
b00000000000000000000000000000000 K!
b00000000000000000000000000000000 L!
b00000000000000000000000000000000 M!
b00000000000000000000000000000000 N!
b00000000000000000000000000000000 O!
b00000000000000000000000000000000 P!
b00000000000000000000000000000000 Q!
b00000000000000000000000000000000 R!
b00000000000000000000000000000000 S!
b00000000000000000000000000000000 T!
b00000000000000000000000000000000 U!
b00000000000000000000000000000000 V!
b00000000000000000000000000000000 W!
0X!
1Y!
0Z!
b00000000000000000000000000100000 [!
b00000000000000000000000000000000 \!
b00000000000000000000000000011001 ]!
b000 ^!
b001 _!
b010 `!
b011 a!
b100 b!
b0000 c!
b0001 d!
b0010 e!
b0110 f!
b1100 g!
b0111 h!
b1111 i!
#1
b00000000000000000000000000100000 W!
1X!
#2
0f
0X!
#3
1X!
#4
b00000000000000000000000000000001 5
0X!
#5
b00000000000000000000000000000100 g
b00000000000000000000000000001000 h
b0010 i
b11111111111111111111111111111111 j
b00000000000000000110111101111101 k
b00000000000000000110111101111100 l
b00000000000000000000000000001000 o
b00000000000000000110111101111101 p
b00000000000000011011110111111100 q
b00000000000000011011110111110100 r
b00100001001010010110111101111101 s
b00 t
b00000 v
b0001000 }
b111100 ~
b000100 3!
b00000000000000000110111101111100 5!
b11111111111111111111111111111111 @!
1X!
0Y!
#6
b00000000000000000000000000000010 5
0X!
#7
b00000000000000000000000000001000 g
b00000000000000000000000000001100 h
b00000000000000000000000000000000 j
b00000000000000000010110111010001 k
b00000000000000000010110111010001 l
b00000000000000000000000000001100 o
b00000000000000000010110111010001 p
b00000000000000001011011101010000 q
b00000000000000001011011101000100 r
b00100001000010000010110111010001 s
b01000 u
b01000 w
b010001 ~
b001000 3!
b00000000000000000010110111010001 5!
b00000000000000000110111101111100 @!
1X!
#8
b00000000000000000000000000000011 5
0X!
#9
b00000000000000000000000000001100 g
b00000000000000000000000000010000 h
b00000000000000000010001011011000 k
b00000000000000000010001011011000 l
b00000000000000000000000000010000 o
b00000000000000000010001011011000 p
b00000000000000001000101101110000 q
b00000000000000001000101101100000 r
b00100000000010000010001011011000 s
b00000 u
b011000 ~
b001100 3!
b00000000000000000010001011011000 5!
b00000000000000000010110111010001 ?!
1X!
#10
b00000000000000000000000000000100 5
0X!
#11
b00000000000000000000000000010000 g
b00000000000000000000000000010100 h
b00000000000000000110111101111100 j
b00000000000000000000011000001110 k
b00000000000000000111010110001010 l
b00000000000000000000000000010100 o
b00000000000000000000011000001110 p
b00000000000000000001100001001100 q
b00000000000000000001100000111000 r
b00100001001010010000011000001110 s
b01001 u
b01001 w
b001010 ~
b010000 3!
b00000000000000000111010110001010 5!
b00000000000000000010001011011000 ?!
1X!
#12
b00000000000000000000000000000101 5
0X!
#13
b00000000000000000000000000010100 g
b00000000000000000000000000011000 h
b00000000000000000111010110001010 j
b11111111111111111001110110111010 k
b00000000000000000001001101000100 l
b00000000000000000000000000011000 o
b11111111111111111001110110111010 p
b11111111111111100111011100000000 q
b11111111111111100111011011101000 r
b00100001001010011001110110111010 s
b000100 ~
b010100 3!
b00000000000000000001001101000100 5!
b00000000000000000111010110001010 @!
1X!
#14
b00000000000000000000000000000110 5
0X!
#15
b00000000000000000000000000011000 g
b00000000000000000000000000011100 h
b0110 i
b00000000000000000010001011011000 j
b00000000000000000001001101000100 k
b00000000000000000000111110010100 l
b00000000000000000000000000011100 o
b11111111111111111111111111111110 p
b00000000000000000000000000010100 q
b11111111111111111111111111111000 r
b00010001000010011111111111111110 s
b10 t
b01000 u
b01001 v
b00000 w
b001 x
0{
b0000100 }
b010100 ~
b00000000000000000001001101000100 !!
b011000 3!
b00000000000000000000111110010100 5!
b01 6!
b00000000000000000001001101000100 @!
1X!
#16
b00000000000000000000000000000111 5
0X!
#17
b00000000000000000000000000011100 g
b00000000000000000000000000100000 h
b0010 i
b11111111111111111011111110000000 k
b11111111111111111110001001011000 l
b00000000000000000000000000100000 o
b11111111111111111011111110000000 p
b11111111111111101111111000100000 q
b11111111111111101111111000000000 r
b00100001000010001011111110000000 s
b00 t
b00000 v
b01000 w
b000 x
1{
b0001000 }
b011000 ~
b00000000000000000000000000000000 !!
b011100 3!
b11111111111111111110001001011000 5!
b00 6!
1X!
#18
b00000000000000000000000000001000 5
0X!
#19
b00000000000000000000000000100000 g
b00000000000000000000000000100100 h
b00000000000000000000000000000000 j
b11111111111111111111110111111010 k
b11111111111111111111110111111010 l
b00000000000000000000000000100100 o
b11111111111111111111110111111010 p
b11111111111111111111100000001100 q
b11111111111111111111011111101000 r
b00100000000010001111110111111010 s
b00000 u
b111010 ~
b100000 3!
b11111111111111111111110111111010 5!
b11111111111111111110001001011000 ?!
1X!
#20
b00000000000000000000000000001001 5
0X!
#21
b00000000000000000000000000100100 g
b00000000000000000000000000101000 h
b0110 i
b00000000000000000001001101000100 j
b00000000000000000001010101001010 l
b00000000000000000000000000101000 o
b11111111111111111111111111111000 p
b00000000000000000000000000001000 q
b11111111111111111111111111100000 r
b00010001001010001111111111111000 s
b10 t
b01001 u
b01000 v
b00000 w
b001 x
0{
b0000100 }
b001010 ~
b11111111111111111111110111111010 !!
b100100 3!
b00000000000000000001010101001010 5!
b01 6!
b11111111111111111111110111111010 ?!
1X!
#22
b00000000000000000000000000001010 5
0X!
#23
b00000000000000000000000000101000 g
b00000000000000000000000000101100 h
b0010 i
b00000000000000000000000000000000 j
b11111111111111111111110111111010 l
b00000000000000000000000000101100 o
b00000000000000000000000000000000 p
b00000000000000000000000000101100 q
b00000000000000000000000000000000 r
b00000000000010000100000000100000 s
b00000 u
b01000 w
b000 x
1{
b0000000 }
b111010 ~
b101000 3!
b11111111111111111111110111111010 5!
b00 6!
1X!
#24
b00000000000000000000000000001011 5
0X!
#25
b00000000000000000000000000101100 g
b00000000000000000000000000001011 h
b1111 i
b00000000000000000000000000000000 k
b00000000000000000000000000000000 l
1m
b00000000000000000000000000110000 o
b00000000000000000000000000110000 q
b00001000000000000000000000001011 s
b00 t
b00000 v
b00000 w
b010 x
b00000000000000000000000000001011 y
0{
b0000010 }
b000000 ~
b00000000000000000000000000000000 !!
b101100 3!
b00000000000000000000000000000000 5!
b10 6!
1X!
#26
b00000000000000000000000000001100 5
0X!
#27
b00000000000000000000000000001011 g
b00000000000000000000000000001111 h
b0010 i
b11111111111111111111110111111010 j
b00000000000000000010110111010001 k
b00000000000000000010101111001011 l
0m
b00000000000000000000000000001111 o
b00000000000000000010110111010001 p
b00000000000000001011011101010011 q
b00000000000000001011011101000100 r
b00100001000010000010110111010001 s
b01000 u
b01000 w
b000 x
b00000000000000000000000000000000 y
1{
b0001000 }
b001011 ~
b001011 3!
b00000000000000000010101111001011 5!
b00 6!
1X!
#28
b00000000000000000000000000001101 5
0X!
#29
b00000000000000000000000000001111 g
b00000000000000000000000000010011 h
b00000000000000000000000000000000 j
b00000000000000000010001011011000 k
b00000000000000000010001011011000 l
b00000000000000000000000000010011 o
b00000000000000000010001011011000 p
b00000000000000001000101101110011 q
b00000000000000001000101101100000 r
b00100000000010000010001011011000 s
b00000 u
b011000 ~
b001111 3!
b00000000000000000010001011011000 5!
b00000000000000000010101111001011 ?!
1X!
#30
b00000000000000000000000000001110 5
0X!
#31
b00000000000000000000000000010011 g
b00000000000000000000000000010111 h
b00000000000000000001001101000100 j
b00000000000000000000011000001110 k
b00000000000000000001100101010010 l
b00000000000000000000000000010111 o
b00000000000000000000011000001110 p
b00000000000000000001100001001111 q
b00000000000000000001100000111000 r
b00100001001010010000011000001110 s
b01001 u
b01001 w
b010010 ~
b010011 3!
b00000000000000000001100101010010 5!
b00000000000000000010001011011000 ?!
1X!
#32
b00000000000000000000000000001111 5
0X!
#33
b00000000000000000000000000010111 g
b00000000000000000000000000011011 h
b00000000000000000001100101010010 j
b11111111111111111001110110111010 k
b11111111111111111011011100001100 l
b00000000000000000000000000011011 o
b11111111111111111001110110111010 p
b11111111111111100111011100000011 q
b11111111111111100111011011101000 r
b00100001001010011001110110111010 s
b001100 ~
b010111 3!
b11111111111111111011011100001100 5!
b00000000000000000001100101010010 @!
1X!
#34
b00000000000000000000000000010000 5
0X!
#35
b00000000000000000000000000011011 g
b00000000000000000000000000011111 h
b0110 i
b00000000000000000010001011011000 j
b11111111111111111011011100001100 k
b00000000000000000110101111001100 l
b00000000000000000000000000011111 o
b11111111111111111111111111111110 p
b00000000000000000000000000010111 q
b11111111111111111111111111111000 r
b00010001000010011111111111111110 s
b10 t
b01000 u
b01001 v
b00000 w
b001 x
0{
b0000100 }
b11111111111111111011011100001100 !!
b011011 3!
b00000000000000000110101111001100 5!
b01 6!
b11111111111111111011011100001100 @!
1X!
#36
b00000000000000000000000000010001 5
0X!
#37
b00000000000000000000000000011111 g
b00000000000000000000000000100011 h
b0010 i
b11111111111111111011111110000000 k
b11111111111111111110001001011000 l
b00000000000000000000000000100011 o
b11111111111111111011111110000000 p
b11111111111111101111111000100011 q
b11111111111111101111111000000000 r
b00100001000010001011111110000000 s
b00 t
b00000 v
b01000 w
b000 x
1{
b0001000 }
b011000 ~
b00000000000000000000000000000000 !!
b011111 3!
b11111111111111111110001001011000 5!
b00 6!
1X!
#38
b00000000000000000000000000010010 5
0X!
#39
b00000000000000000000000000100011 g
b00000000000000000000000000100111 h
b00000000000000000000000000000000 j
b11111111111111111111110111111010 k
b11111111111111111111110111111010 l
b00000000000000000000000000100111 o
b11111111111111111111110111111010 p
b11111111111111111111100000001111 q
b11111111111111111111011111101000 r
b00100000000010001111110111111010 s
b00000 u
b111010 ~
b100011 3!
b11111111111111111111110111111010 5!
b11111111111111111110001001011000 ?!
1X!
#40
b00000000000000000000000000010011 5
0X!
#41
b00000000000000000000000000100111 g
b00000000000000000000000000101011 h
b0110 i
b11111111111111111011011100001100 j
b11111111111111111011100100010010 l
b00000000000000000000000000101011 o
b11111111111111111111111111111000 p
b00000000000000000000000000001011 q
b11111111111111111111111111100000 r
b00010001001010001111111111111000 s
b10 t
b01001 u
b01000 v
b00000 w
b001 x
0{
b0000100 }
b010010 ~
b11111111111111111111110111111010 !!
b100111 3!
b11111111111111111011100100010010 5!
b01 6!
b11111111111111111111110111111010 ?!
1X!
#42
b00000000000000000000000000010100 5
0X!
#43
b00000000000000000000000000101011 g
b00000000000000000000000000101111 h
b0010 i
b00000000000000000000000000000000 j
b11111111111111111111110111111010 l
b00000000000000000000000000101111 o
b00000000000000000000000000000000 p
b00000000000000000000000000101111 q
b00000000000000000000000000000000 r
b00000000000010000100000000100000 s
b00000 u
b01000 w
b000 x
1{
b0000000 }
b111010 ~
b101011 3!
b11111111111111111111110111111010 5!
b00 6!
1X!
#44
b00000000000000000000000000010101 5
0X!
#45
b00000000000000000000000000101111 g
b00000000000000000000000000001011 h
b1111 i
b00000000000000000000000000000000 k
b00000000000000000000000000000000 l
1m
b00000000000000000000000000110011 o
b00000000000000000000000000110011 q
b00001000000000000000000000001011 s
b00 t
b00000 v
b00000 w
b010 x
b00000000000000000000000000001011 y
0{
b0000010 }
b000000 ~
b00000000000000000000000000000000 !!
b101111 3!
b00000000000000000000000000000000 5!
b10 6!
1X!
#46
b00000000000000000000000000010110 5
0X!
#47
b00000000000000000000000000001011 g
b00000000000000000000000000001111 h
b0010 i
b11111111111111111111110111111010 j
b00000000000000000010110111010001 k
b00000000000000000010101111001011 l
0m
b00000000000000000000000000001111 o
b00000000000000000010110111010001 p
b00000000000000001011011101010011 q
b00000000000000001011011101000100 r
b00100001000010000010110111010001 s
b01000 u
b01000 w
b000 x
b00000000000000000000000000000000 y
1{
b0001000 }
b001011 ~
b001011 3!
b00000000000000000010101111001011 5!
b00 6!
1X!
#48
b00000000000000000000000000010111 5
0X!
#49
b00000000000000000000000000001111 g
b00000000000000000000000000010011 h
b00000000000000000000000000000000 j
b00000000000000000010001011011000 k
b00000000000000000010001011011000 l
b00000000000000000000000000010011 o
b00000000000000000010001011011000 p
b00000000000000001000101101110011 q
b00000000000000001000101101100000 r
b00100000000010000010001011011000 s
b00000 u
b011000 ~
b001111 3!
b00000000000000000010001011011000 5!
b00000000000000000010101111001011 ?!
1X!
#50
b00000000000000000000000000011000 5
0X!
#51
b00000000000000000000000000010011 g
b00000000000000000000000000010111 h
b11111111111111111011011100001100 j
b00000000000000000000011000001110 k
b11111111111111111011110100011010 l
b00000000000000000000000000010111 o
b00000000000000000000011000001110 p
b00000000000000000001100001001111 q
b00000000000000000001100000111000 r
b00100001001010010000011000001110 s
b01001 u
b01001 w
b011010 ~
b010011 3!
b11111111111111111011110100011010 5!
b00000000000000000010001011011000 ?!
1X!
#52
b00000000000000000000000000011001 5
0X!
#53
b00000000000000000000000000010111 g
b00000000000000000000000000011011 h
b11111111111111111011110100011010 j
b11111111111111111001110110111010 k
b11111111111111110101101011010100 l
b00000000000000000000000000011011 o
b11111111111111111001110110111010 p
b11111111111111100111011100000011 q
b11111111111111100111011011101000 r
b00100001001010011001110110111010 s
b010100 ~
b010111 3!
b11111111111111110101101011010100 5!
b11111111111111111011110100011010 @!
1X!
